{
  "tags": {
    "allowUnknownTags": true,
    "dictionaries": ["jsdoc","closure"]
  },
  "source": {
    "include": [
      "../README.md",
      "aircraftList.js",
      "app.js",
      "socket.js",
      "routes/index.js",
      "helpers/fgfsPaths.js",
      "helpers/fgfsxmlIO.js",
      "helpers/fileIO.js",
      "helpers/telnet.js",
      "helpers/xmlIO.js"
    ],
    "includePattern": ".+\\.js(doc)?$",
    "excludePattern": "(^|\\/|\\\\)_"
  },
  "plugins": [],
  "templates": {
    "cleverLinks": false,
    "monospaceLinks": false
  },
  "opts": {
    "destination": "./JSDoc/"
  }
}