<?xml version='1.0' encoding='ISO-8859-1'?>
<!DOCTYPE svg PUBLIC "-//W3C//DTD SVG 1.1//EN" "http://www.w3.org/Graphics/SVG/1.1/DTD/svg11.dtd">
<!-- This file was generated by dvisvgm 1.2.2 (x86_64-unknown-linux-gnu) -->
<!-- Mon Mar 14 04:17:39 2016 -->
<svg height='15.248pt' version='1.1' viewBox='0 0 106.748 15.248' width='106.748pt' xmlns='http://www.w3.org/2000/svg' xmlns:xlink='http://www.w3.org/1999/xlink'>
<defs>
<path d='M2.556 -3C2.952 -3.216 3.396 -3.588 3.696 -3.84C4.416 -4.464 4.68 -4.656 5.136 -4.836C5.088 -4.764 5.076 -4.668 5.076 -4.584C5.076 -4.26 5.352 -4.2 5.472 -4.2C5.856 -4.2 6.072 -4.56 6.072 -4.788C6.072 -4.86 6.048 -5.172 5.628 -5.172C4.908 -5.172 4.2 -4.56 3.672 -4.116C2.976 -3.504 2.628 -3.24 2.136 -3.084L2.592 -4.992C2.592 -5.184 2.436 -5.292 2.28 -5.292C2.172 -5.292 1.908 -5.256 1.812 -4.872L0.696 -0.42C0.66 -0.276 0.66 -0.252 0.66 -0.18C0.66 -0.012 0.792 0.12 0.972 0.12C1.332 0.12 1.404 -0.192 1.464 -0.444C1.536 -0.696 2.028 -2.7 2.052 -2.772C3.576 -2.7 4.092 -2.316 4.092 -1.728C4.092 -1.644 4.092 -1.608 4.056 -1.476C4.008 -1.248 4.008 -1.116 4.008 -1.044C4.008 -0.324 4.476 0.12 5.064 0.12C5.556 0.12 5.832 -0.228 6.012 -0.54C6.264 -1.008 6.42 -1.668 6.42 -1.716C6.42 -1.776 6.372 -1.824 6.3 -1.824C6.192 -1.824 6.18 -1.776 6.132 -1.584C5.976 -1.008 5.712 -0.12 5.1 -0.12C4.836 -0.12 4.704 -0.276 4.704 -0.696C4.704 -0.924 4.752 -1.188 4.8 -1.368C4.824 -1.488 4.86 -1.632 4.86 -1.764C4.86 -2.856 3.348 -2.964 2.556 -3Z' id='g0-20'/>
<path d='M8.964 -8.34C8.964 -8.448 8.88 -8.448 8.856 -8.448S8.784 -8.448 8.688 -8.328L7.86 -7.32C7.44 -8.04 6.78 -8.448 5.88 -8.448C3.288 -8.448 0.6 -5.82 0.6 -3C0.6 -0.996 2.004 0.252 3.756 0.252C4.716 0.252 5.556 -0.156 6.252 -0.744C7.296 -1.62 7.608 -2.784 7.608 -2.88C7.608 -2.988 7.512 -2.988 7.476 -2.988C7.368 -2.988 7.356 -2.916 7.332 -2.868C6.78 -0.996 5.16 -0.096 3.96 -0.096C2.688 -0.096 1.584 -0.912 1.584 -2.616C1.584 -3 1.704 -5.088 3.06 -6.66C3.72 -7.428 4.848 -8.1 5.988 -8.1C7.308 -8.1 7.896 -7.008 7.896 -5.784C7.896 -5.472 7.86 -5.208 7.86 -5.16C7.86 -5.052 7.98 -5.052 8.016 -5.052C8.148 -5.052 8.16 -5.064 8.208 -5.28L8.964 -8.34Z' id='g0-67'/>
<path d='M1.496 -0.12C1.496 0.4 1.384 0.856 0.888 1.352C0.856 1.376 0.84 1.392 0.84 1.432C0.84 1.496 0.904 1.544 0.96 1.544C1.056 1.544 1.72 0.912 1.72 -0.024C1.72 -0.536 1.528 -0.888 1.176 -0.888C0.896 -0.888 0.736 -0.664 0.736 -0.448C0.736 -0.224 0.888 0 1.184 0C1.376 0 1.496 -0.112 1.496 -0.12Z' id='g1-59'/>
<path d='M1.336 -0.632C1.264 -0.328 1.248 -0.264 0.656 -0.264C0.504 -0.264 0.408 -0.264 0.408 -0.112C0.408 0 0.512 0 0.648 0H3.4C5.088 0 6.768 -1.616 6.768 -3.4C6.768 -4.624 5.952 -5.464 4.76 -5.464H1.96C1.816 -5.464 1.712 -5.464 1.712 -5.312C1.712 -5.2 1.808 -5.2 1.944 -5.2C2.208 -5.2 2.44 -5.2 2.44 -5.072C2.44 -5.04 2.432 -5.032 2.408 -4.928L1.336 -0.632ZM3.104 -4.904C3.176 -5.176 3.184 -5.2 3.512 -5.2H4.48C5.416 -5.2 6.048 -4.664 6.048 -3.688C6.048 -3.424 5.936 -2.12 5.24 -1.224C4.888 -0.776 4.2 -0.264 3.256 -0.264H2.064C1.992 -0.28 1.968 -0.28 1.968 -0.336C1.968 -0.4 1.984 -0.464 2 -0.512L3.104 -4.904Z' id='g1-68'/>
<path d='M3.104 -4.84C3.176 -5.112 3.192 -5.2 3.928 -5.2C4.152 -5.2 4.232 -5.2 4.232 -5.352C4.232 -5.368 4.216 -5.464 4.096 -5.464C3.928 -5.464 3.688 -5.448 3.52 -5.44H2.944C2.112 -5.44 1.92 -5.464 1.864 -5.464C1.832 -5.464 1.704 -5.464 1.704 -5.312C1.704 -5.2 1.808 -5.2 1.936 -5.2C2.2 -5.2 2.432 -5.2 2.432 -5.072C2.432 -5.04 2.424 -5.032 2.4 -4.928L1.328 -0.632C1.256 -0.328 1.24 -0.264 0.648 -0.264C0.496 -0.264 0.4 -0.264 0.4 -0.112C0.4 0 0.504 0 0.64 0H4.504C4.704 0 4.712 -0.008 4.776 -0.16C4.856 -0.384 5.44 -1.888 5.44 -1.968C5.44 -2.04 5.376 -2.08 5.32 -2.08C5.232 -2.08 5.216 -2.024 5.16 -1.904C4.872 -1.16 4.528 -0.264 3.096 -0.264H2.08C2.008 -0.28 1.984 -0.28 1.984 -0.336C1.984 -0.4 2 -0.464 2.016 -0.512L3.104 -4.84Z' id='g1-76'/>
<path d='M4.788 -2.772H8.1C8.268 -2.772 8.484 -2.772 8.484 -2.988C8.484 -3.216 8.28 -3.216 8.1 -3.216H4.788V-6.528C4.788 -6.696 4.788 -6.912 4.572 -6.912C4.344 -6.912 4.344 -6.708 4.344 -6.528V-3.216H1.032C0.864 -3.216 0.648 -3.216 0.648 -3C0.648 -2.772 0.852 -2.772 1.032 -2.772H4.344V0.54C4.344 0.708 4.344 0.924 4.56 0.924C4.788 0.924 4.788 0.72 4.788 0.54V-2.772Z' id='g2-43'/>
<path d='M8.1 -3.888C8.268 -3.888 8.484 -3.888 8.484 -4.104C8.484 -4.332 8.28 -4.332 8.1 -4.332H1.032C0.864 -4.332 0.648 -4.332 0.648 -4.116C0.648 -3.888 0.852 -3.888 1.032 -3.888H8.1ZM8.1 -1.656C8.268 -1.656 8.484 -1.656 8.484 -1.872C8.484 -2.1 8.28 -2.1 8.1 -2.1H1.032C0.864 -2.1 0.648 -2.1 0.648 -1.884C0.648 -1.656 0.852 -1.656 1.032 -1.656H8.1Z' id='g2-61'/>
<path d='M3.912 -2.552C3.912 -3.408 3.824 -3.928 3.56 -4.44C3.208 -5.144 2.56 -5.32 2.12 -5.32C1.112 -5.32 0.744 -4.568 0.632 -4.344C0.344 -3.76 0.328 -2.968 0.328 -2.552C0.328 -2.024 0.352 -1.216 0.736 -0.576C1.104 0.016 1.696 0.168 2.12 0.168C2.504 0.168 3.192 0.048 3.592 -0.744C3.888 -1.32 3.912 -2.032 3.912 -2.552ZM2.12 -0.056C1.848 -0.056 1.296 -0.184 1.128 -1.024C1.04 -1.48 1.04 -2.232 1.04 -2.648C1.04 -3.2 1.04 -3.76 1.128 -4.2C1.296 -5.016 1.92 -5.096 2.12 -5.096C2.392 -5.096 2.944 -4.96 3.104 -4.232C3.2 -3.792 3.2 -3.192 3.2 -2.648C3.2 -2.176 3.2 -1.456 3.104 -1.008C2.936 -0.168 2.384 -0.056 2.12 -0.056Z' id='g3-48'/>
<path d='M2.256 -1.632C2.384 -1.752 2.72 -2.016 2.848 -2.128C3.344 -2.584 3.816 -3.024 3.816 -3.752C3.816 -4.704 3.016 -5.32 2.016 -5.32C1.056 -5.32 0.424 -4.592 0.424 -3.88C0.424 -3.488 0.736 -3.432 0.848 -3.432C1.016 -3.432 1.264 -3.552 1.264 -3.856C1.264 -4.272 0.864 -4.272 0.768 -4.272C1 -4.856 1.536 -5.056 1.928 -5.056C2.672 -5.056 3.056 -4.424 3.056 -3.752C3.056 -2.92 2.472 -2.312 1.528 -1.344L0.52 -0.304C0.424 -0.216 0.424 -0.2 0.424 0H3.584L3.816 -1.432H3.568C3.544 -1.272 3.48 -0.872 3.384 -0.72C3.336 -0.656 2.728 -0.656 2.6 -0.656H1.176L2.256 -1.632Z' id='g3-50'/>
</defs>
<g id='page1' transform='matrix(1.12578 0 0 1.12578 -63.986 -63.0666)'>
<use x='56.6248' xlink:href='#g0-67' y='66'/>
<use x='65.0313' xlink:href='#g1-68' y='67.8'/>
<use x='76.0741' xlink:href='#g2-61' y='66'/>
<use x='88.5462' xlink:href='#g0-67' y='66'/>
<use x='96.9526' xlink:href='#g1-68' y='67.8'/>
<use x='104.162' xlink:href='#g1-59' y='67.8'/>
<use x='106.523' xlink:href='#g3-48' y='67.8'/>
<use x='113.94' xlink:href='#g2-43' y='66'/>
<use x='125.745' xlink:href='#g0-20' y='66'/>
<use x='132.509' xlink:href='#g0-67' y='66'/>
<use x='140.916' xlink:href='#g1-76' y='67.8'/>
<use x='147.196' xlink:href='#g3-50' y='60.9667'/>
</g>
</svg>
