<?xml version='1.0' encoding='ISO-8859-1'?>
<!DOCTYPE svg PUBLIC "-//W3C//DTD SVG 1.1//EN" "http://www.w3.org/Graphics/SVG/1.1/DTD/svg11.dtd">
<!-- This file was generated by dvisvgm 1.2.2 (x86_64-unknown-linux-gnu) -->
<!-- Sat Mar 12 19:38:42 2016 -->
<svg height='40.5284pt' version='1.1' viewBox='0 0 134.493 40.5284' width='134.493pt' xmlns='http://www.w3.org/2000/svg' xmlns:xlink='http://www.w3.org/1999/xlink'>
<defs>
<path d='M0.372 2.076C0.36 2.136 0.336 2.208 0.336 2.28C0.336 2.46 0.48 2.58 0.66 2.58S1.008 2.46 1.08 2.292C1.128 2.184 1.464 0.744 1.848 -0.732C2.088 -0.132 2.532 0.12 3 0.12C4.356 0.12 5.892 -1.56 5.892 -3.372C5.892 -4.656 5.112 -5.292 4.284 -5.292C3.228 -5.292 1.944 -4.2 1.548 -2.604L0.372 2.076ZM2.988 -0.12C2.172 -0.12 1.968 -1.068 1.968 -1.212C1.968 -1.284 2.268 -2.424 2.304 -2.604C2.916 -4.992 4.092 -5.052 4.272 -5.052C4.812 -5.052 5.112 -4.56 5.112 -3.852C5.112 -3.24 4.788 -2.052 4.584 -1.548C4.224 -0.72 3.6 -0.12 2.988 -0.12Z' id='g0-26'/>
<path d='M2.208 -0.576C2.208 -0.924 1.92 -1.164 1.632 -1.164C1.284 -1.164 1.044 -0.876 1.044 -0.588C1.044 -0.24 1.332 0 1.62 0C1.968 0 2.208 -0.288 2.208 -0.576Z' id='g0-58'/>
<path d='M8.964 -8.34C8.964 -8.448 8.88 -8.448 8.856 -8.448S8.784 -8.448 8.688 -8.328L7.86 -7.32C7.44 -8.04 6.78 -8.448 5.88 -8.448C3.288 -8.448 0.6 -5.82 0.6 -3C0.6 -0.996 2.004 0.252 3.756 0.252C4.716 0.252 5.556 -0.156 6.252 -0.744C7.296 -1.62 7.608 -2.784 7.608 -2.88C7.608 -2.988 7.512 -2.988 7.476 -2.988C7.368 -2.988 7.356 -2.916 7.332 -2.868C6.78 -0.996 5.16 -0.096 3.96 -0.096C2.688 -0.096 1.584 -0.912 1.584 -2.616C1.584 -3 1.704 -5.088 3.06 -6.66C3.72 -7.428 4.848 -8.1 5.988 -8.1C7.308 -8.1 7.896 -7.008 7.896 -5.784C7.896 -5.472 7.86 -5.208 7.86 -5.16C7.86 -5.052 7.98 -5.052 8.016 -5.052C8.148 -5.052 8.16 -5.064 8.208 -5.28L8.964 -8.34Z' id='g0-67'/>
<path d='M7.62 -8.34C7.62 -8.448 7.536 -8.448 7.512 -8.448C7.464 -8.448 7.452 -8.436 7.308 -8.256C7.236 -8.172 6.744 -7.548 6.732 -7.536C6.336 -8.316 5.544 -8.448 5.04 -8.448C3.516 -8.448 2.136 -7.056 2.136 -5.7C2.136 -4.8 2.676 -4.272 3.264 -4.068C3.396 -4.02 4.104 -3.828 4.464 -3.744C5.076 -3.576 5.232 -3.528 5.484 -3.264C5.532 -3.204 5.772 -2.928 5.772 -2.364C5.772 -1.248 4.74 -0.096 3.54 -0.096C2.556 -0.096 1.464 -0.516 1.464 -1.86C1.464 -2.088 1.512 -2.376 1.548 -2.496C1.548 -2.532 1.56 -2.592 1.56 -2.616C1.56 -2.664 1.536 -2.724 1.44 -2.724C1.332 -2.724 1.32 -2.7 1.272 -2.496L0.66 -0.036C0.66 -0.024 0.612 0.132 0.612 0.144C0.612 0.252 0.708 0.252 0.732 0.252C0.78 0.252 0.792 0.24 0.936 0.06L1.488 -0.66C1.776 -0.228 2.4 0.252 3.516 0.252C5.064 0.252 6.48 -1.248 6.48 -2.748C6.48 -3.252 6.36 -3.696 5.904 -4.14C5.652 -4.392 5.436 -4.452 4.332 -4.74C3.528 -4.956 3.42 -4.992 3.204 -5.184C3 -5.388 2.844 -5.676 2.844 -6.084C2.844 -7.092 3.864 -8.124 5.004 -8.124C6.18 -8.124 6.732 -7.404 6.732 -6.264C6.732 -5.952 6.672 -5.628 6.672 -5.58C6.672 -5.472 6.768 -5.472 6.804 -5.472C6.912 -5.472 6.924 -5.508 6.972 -5.7L7.62 -8.34Z' id='g0-83'/>
<path d='M7.428 -6.864C7.836 -7.512 8.208 -7.8 8.82 -7.848C8.94 -7.86 9.036 -7.86 9.036 -8.076C9.036 -8.124 9.012 -8.196 8.904 -8.196C8.688 -8.196 8.172 -8.172 7.956 -8.172C7.608 -8.172 7.248 -8.196 6.912 -8.196C6.816 -8.196 6.696 -8.196 6.696 -7.968C6.696 -7.86 6.804 -7.848 6.852 -7.848C7.296 -7.812 7.344 -7.596 7.344 -7.452C7.344 -7.272 7.176 -6.996 7.164 -6.984L3.396 -1.008L2.556 -7.476C2.556 -7.824 3.18 -7.848 3.312 -7.848C3.492 -7.848 3.6 -7.848 3.6 -8.076C3.6 -8.196 3.468 -8.196 3.432 -8.196C3.228 -8.196 2.988 -8.172 2.784 -8.172H2.112C1.236 -8.172 0.876 -8.196 0.864 -8.196C0.792 -8.196 0.648 -8.196 0.648 -7.98C0.648 -7.848 0.732 -7.848 0.924 -7.848C1.536 -7.848 1.572 -7.74 1.608 -7.44L2.568 -0.036C2.604 0.216 2.604 0.252 2.772 0.252C2.916 0.252 2.976 0.216 3.096 0.024L7.428 -6.864Z' id='g0-86'/>
<path d='M10.836 -6.864C11.112 -7.332 11.376 -7.776 12.096 -7.848C12.204 -7.86 12.312 -7.872 12.312 -8.064C12.312 -8.196 12.204 -8.196 12.168 -8.196C12.144 -8.196 12.06 -8.172 11.268 -8.172C10.908 -8.172 10.536 -8.196 10.188 -8.196C10.116 -8.196 9.972 -8.196 9.972 -7.968C9.972 -7.86 10.068 -7.848 10.14 -7.848C10.38 -7.836 10.764 -7.764 10.764 -7.392C10.764 -7.236 10.716 -7.152 10.596 -6.948L7.32 -1.212L6.888 -7.464C6.888 -7.608 7.02 -7.836 7.692 -7.848C7.848 -7.848 7.968 -7.848 7.968 -8.076C7.968 -8.196 7.848 -8.196 7.788 -8.196C7.368 -8.196 6.924 -8.172 6.492 -8.172H5.868C5.688 -8.172 5.472 -8.196 5.292 -8.196C5.22 -8.196 5.076 -8.196 5.076 -7.968C5.076 -7.848 5.16 -7.848 5.364 -7.848C5.916 -7.848 5.916 -7.836 5.964 -7.104L6 -6.672L2.892 -1.212L2.448 -7.404C2.448 -7.536 2.448 -7.836 3.264 -7.848C3.396 -7.848 3.528 -7.848 3.528 -8.064C3.528 -8.196 3.42 -8.196 3.348 -8.196C2.928 -8.196 2.484 -8.172 2.052 -8.172H1.428C1.248 -8.172 1.032 -8.196 0.852 -8.196C0.78 -8.196 0.636 -8.196 0.636 -7.968C0.636 -7.848 0.732 -7.848 0.9 -7.848C1.464 -7.848 1.476 -7.776 1.5 -7.392L2.028 -0.024C2.04 0.18 2.052 0.252 2.196 0.252C2.316 0.252 2.34 0.204 2.448 0.024L6.024 -6.228L6.468 -0.024C6.48 0.18 6.492 0.252 6.636 0.252C6.756 0.252 6.792 0.192 6.888 0.024L10.836 -6.864Z' id='g0-87'/>
<path d='M3.104 -4.84C3.176 -5.112 3.192 -5.2 3.928 -5.2C4.152 -5.2 4.232 -5.2 4.232 -5.352C4.232 -5.368 4.216 -5.464 4.096 -5.464C3.928 -5.464 3.688 -5.448 3.52 -5.44H2.944C2.112 -5.44 1.92 -5.464 1.864 -5.464C1.832 -5.464 1.704 -5.464 1.704 -5.312C1.704 -5.2 1.808 -5.2 1.936 -5.2C2.2 -5.2 2.432 -5.2 2.432 -5.072C2.432 -5.04 2.424 -5.032 2.4 -4.928L1.328 -0.632C1.256 -0.328 1.24 -0.264 0.648 -0.264C0.496 -0.264 0.4 -0.264 0.4 -0.112C0.4 0 0.504 0 0.64 0H4.504C4.704 0 4.712 -0.008 4.776 -0.16C4.856 -0.384 5.44 -1.888 5.44 -1.968C5.44 -2.04 5.376 -2.08 5.32 -2.08C5.232 -2.08 5.216 -2.024 5.16 -1.904C4.872 -1.16 4.528 -0.264 3.096 -0.264H2.08C2.008 -0.28 1.984 -0.28 1.984 -0.336C1.984 -0.4 2 -0.464 2.016 -0.512L3.104 -4.84Z' id='g1-76'/>
<path d='M3.456 -7.692C3.456 -7.968 3.456 -7.98 3.216 -7.98C2.928 -7.656 2.328 -7.212 1.092 -7.212V-6.864C1.368 -6.864 1.968 -6.864 2.628 -7.176V-0.924C2.628 -0.492 2.592 -0.348 1.536 -0.348H1.164V0C1.488 -0.024 2.652 -0.024 3.048 -0.024S4.596 -0.024 4.92 0V-0.348H4.548C3.492 -0.348 3.456 -0.492 3.456 -0.924V-7.692Z' id='g2-49'/>
<path d='M5.28 -2.016H5.016C4.98 -1.812 4.884 -1.152 4.764 -0.96C4.68 -0.852 3.996 -0.852 3.636 -0.852H1.416C1.74 -1.128 2.472 -1.896 2.784 -2.184C4.608 -3.864 5.28 -4.488 5.28 -5.676C5.28 -7.056 4.188 -7.98 2.796 -7.98S0.588 -6.792 0.588 -5.76C0.588 -5.148 1.116 -5.148 1.152 -5.148C1.404 -5.148 1.716 -5.328 1.716 -5.712C1.716 -6.048 1.488 -6.276 1.152 -6.276C1.044 -6.276 1.02 -6.276 0.984 -6.264C1.212 -7.08 1.86 -7.632 2.64 -7.632C3.66 -7.632 4.284 -6.78 4.284 -5.676C4.284 -4.656 3.696 -3.768 3.012 -3L0.588 -0.288V0H4.968L5.28 -2.016Z' id='g2-50'/>
<path d='M8.1 -3.888C8.268 -3.888 8.484 -3.888 8.484 -4.104C8.484 -4.332 8.28 -4.332 8.1 -4.332H1.032C0.864 -4.332 0.648 -4.332 0.648 -4.116C0.648 -3.888 0.852 -3.888 1.032 -3.888H8.1ZM8.1 -1.656C8.268 -1.656 8.484 -1.656 8.484 -1.872C8.484 -2.1 8.28 -2.1 8.1 -2.1H1.032C0.864 -2.1 0.648 -2.1 0.648 -1.884C0.648 -1.656 0.852 -1.656 1.032 -1.656H8.1Z' id='g2-61'/>
<path d='M8.4 28.188C8.4 28.14 8.376 28.116 8.352 28.08C7.908 27.636 7.104 26.832 6.3 25.536C4.368 22.44 3.492 18.54 3.492 13.92C3.492 10.692 3.924 6.528 5.904 2.952C6.852 1.248 7.836 0.264 8.364 -0.264C8.4 -0.3 8.4 -0.324 8.4 -0.36C8.4 -0.48 8.316 -0.48 8.148 -0.48S7.956 -0.48 7.776 -0.3C3.756 3.36 2.496 8.856 2.496 13.908C2.496 18.624 3.576 23.376 6.624 26.964C6.864 27.24 7.32 27.732 7.812 28.164C7.956 28.308 7.98 28.308 8.148 28.308S8.4 28.308 8.4 28.188Z' id='g3-18'/>
<path d='M6.324 13.92C6.324 9.204 5.244 4.452 2.196 0.864C1.956 0.588 1.5 0.096 1.008 -0.336C0.864 -0.48 0.84 -0.48 0.672 -0.48C0.528 -0.48 0.42 -0.48 0.42 -0.36C0.42 -0.312 0.468 -0.264 0.492 -0.24C0.912 0.192 1.716 0.996 2.52 2.292C4.452 5.388 5.328 9.288 5.328 13.908C5.328 17.136 4.896 21.3 2.916 24.876C1.968 26.58 0.972 27.576 0.468 28.08C0.444 28.116 0.42 28.152 0.42 28.188C0.42 28.308 0.528 28.308 0.672 28.308C0.84 28.308 0.864 28.308 1.044 28.128C5.064 24.468 6.324 18.972 6.324 13.92Z' id='g3-19'/>
<path d='M2.988 17.52L1.404 20.64C1.344 20.76 1.332 20.784 1.332 20.796C1.332 20.844 1.488 20.976 1.5 20.988L2.316 19.404L5.088 35.52C5.46 35.52 5.532 35.52 5.592 35.208L12.24 -0.24C12.24 -0.372 12.144 -0.48 12 -0.48C11.808 -0.48 11.772 -0.324 11.736 -0.12L5.592 32.58H5.58L2.988 17.52Z' id='g3-115'/>
<path d='M2.604 -3.606C2.652 -3.804 2.664 -3.858 3.276 -3.858C3.42 -3.858 3.492 -3.858 3.492 -4.008C3.492 -4.026 3.48 -4.098 3.39 -4.098C3.246 -4.098 3.09 -4.08 2.946 -4.08C2.784 -4.08 2.61 -4.074 2.448 -4.074C2.31 -4.074 2.172 -4.08 2.034 -4.08S1.74 -4.098 1.602 -4.098C1.566 -4.098 1.47 -4.098 1.47 -3.948C1.47 -3.858 1.548 -3.858 1.662 -3.858C1.77 -3.858 1.92 -3.858 2.046 -3.816C2.046 -3.756 2.046 -3.72 2.022 -3.624L1.236 -0.498C1.182 -0.282 1.17 -0.24 0.72 -0.24C0.582 -0.24 0.504 -0.24 0.504 -0.09C0.504 0 0.582 0 0.69 0H3.87C4.026 0 4.032 -0.006 4.074 -0.12C4.134 -0.27 4.602 -1.47 4.602 -1.506C4.602 -1.566 4.554 -1.602 4.488 -1.602C4.41 -1.602 4.392 -1.56 4.362 -1.488C4.092 -0.81 3.792 -0.24 2.712 -0.24H1.974C1.86 -0.24 1.848 -0.24 1.776 -0.258L2.604 -3.606Z' id='g4-76'/>
</defs>
<g id='page1' transform='matrix(1.12578 0 0 1.12578 -63.986 -61.5624)'>
<use x='56.6248' xlink:href='#g0-86' y='76.606'/>
<use x='63.4748' xlink:href='#g1-76' y='78.4059'/>
<use x='73.0887' xlink:href='#g2-61' y='76.606'/>
<use x='85.5608' xlink:href='#g2-49' y='76.606'/>
<use x='91.4357' xlink:href='#g0-58' y='76.606'/>
<use x='94.6996' xlink:href='#g2-50' y='76.606'/>
<use x='100.574' xlink:href='#g3-115' y='54.96'/>
<rect height='0.47998' width='63.5168' x='112.575' y='54.48'/>
<use x='124' xlink:href='#g2-50' y='68.4879'/>
<rect height='0.47998' width='26.3252' x='113.775' y='73.366'/>
<use x='113.775' xlink:href='#g0-26' y='84.8374'/>
<use x='119.835' xlink:href='#g0-67' y='84.8374'/>
<use x='128.241' xlink:href='#g1-76' y='86.6374'/>
<use x='134.022' xlink:href='#g4-76' y='87.9818'/>
<use x='143.3' xlink:href='#g3-18' y='59.6858'/>
<use x='153.333' xlink:href='#g0-87' y='68.4879'/>
<rect height='0.47998' width='12.7249' x='153.333' y='73.366'/>
<use x='155.733' xlink:href='#g0-83' y='84.8374'/>
<use x='167.258' xlink:href='#g3-19' y='59.6858'/>
</g>
</svg>
