<?xml version='1.0' encoding='ISO-8859-1'?>
<!DOCTYPE svg PUBLIC "-//W3C//DTD SVG 1.1//EN" "http://www.w3.org/Graphics/SVG/1.1/DTD/svg11.dtd">
<!-- This file was generated by dvisvgm 1.2.2 (x86_64-unknown-linux-gnu) -->
<!-- Sat Mar 12 19:35:40 2016 -->
<svg height='31.1388pt' version='1.1' viewBox='0 0 70.8164 31.1388' width='70.8164pt' xmlns='http://www.w3.org/2000/svg' xmlns:xlink='http://www.w3.org/1999/xlink'>
<defs>
<path d='M7.62 -8.34C7.62 -8.448 7.536 -8.448 7.512 -8.448C7.464 -8.448 7.452 -8.436 7.308 -8.256C7.236 -8.172 6.744 -7.548 6.732 -7.536C6.336 -8.316 5.544 -8.448 5.04 -8.448C3.516 -8.448 2.136 -7.056 2.136 -5.7C2.136 -4.8 2.676 -4.272 3.264 -4.068C3.396 -4.02 4.104 -3.828 4.464 -3.744C5.076 -3.576 5.232 -3.528 5.484 -3.264C5.532 -3.204 5.772 -2.928 5.772 -2.364C5.772 -1.248 4.74 -0.096 3.54 -0.096C2.556 -0.096 1.464 -0.516 1.464 -1.86C1.464 -2.088 1.512 -2.376 1.548 -2.496C1.548 -2.532 1.56 -2.592 1.56 -2.616C1.56 -2.664 1.536 -2.724 1.44 -2.724C1.332 -2.724 1.32 -2.7 1.272 -2.496L0.66 -0.036C0.66 -0.024 0.612 0.132 0.612 0.144C0.612 0.252 0.708 0.252 0.732 0.252C0.78 0.252 0.792 0.24 0.936 0.06L1.488 -0.66C1.776 -0.228 2.4 0.252 3.516 0.252C5.064 0.252 6.48 -1.248 6.48 -2.748C6.48 -3.252 6.36 -3.696 5.904 -4.14C5.652 -4.392 5.436 -4.452 4.332 -4.74C3.528 -4.956 3.42 -4.992 3.204 -5.184C3 -5.388 2.844 -5.676 2.844 -6.084C2.844 -7.092 3.864 -8.124 5.004 -8.124C6.18 -8.124 6.732 -7.404 6.732 -6.264C6.732 -5.952 6.672 -5.628 6.672 -5.58C6.672 -5.472 6.768 -5.472 6.804 -5.472C6.912 -5.472 6.924 -5.508 6.972 -5.7L7.62 -8.34Z' id='g0-83'/>
<path d='M7.428 -6.864C7.836 -7.512 8.208 -7.8 8.82 -7.848C8.94 -7.86 9.036 -7.86 9.036 -8.076C9.036 -8.124 9.012 -8.196 8.904 -8.196C8.688 -8.196 8.172 -8.172 7.956 -8.172C7.608 -8.172 7.248 -8.196 6.912 -8.196C6.816 -8.196 6.696 -8.196 6.696 -7.968C6.696 -7.86 6.804 -7.848 6.852 -7.848C7.296 -7.812 7.344 -7.596 7.344 -7.452C7.344 -7.272 7.176 -6.996 7.164 -6.984L3.396 -1.008L2.556 -7.476C2.556 -7.824 3.18 -7.848 3.312 -7.848C3.492 -7.848 3.6 -7.848 3.6 -8.076C3.6 -8.196 3.468 -8.196 3.432 -8.196C3.228 -8.196 2.988 -8.172 2.784 -8.172H2.112C1.236 -8.172 0.876 -8.196 0.864 -8.196C0.792 -8.196 0.648 -8.196 0.648 -7.98C0.648 -7.848 0.732 -7.848 0.924 -7.848C1.536 -7.848 1.572 -7.74 1.608 -7.44L2.568 -0.036C2.604 0.216 2.604 0.252 2.772 0.252C2.916 0.252 2.976 0.216 3.096 0.024L7.428 -6.864Z' id='g0-86'/>
<path d='M3.612 -1.428C3.552 -1.224 3.552 -1.2 3.384 -0.972C3.12 -0.636 2.592 -0.12 2.028 -0.12C1.536 -0.12 1.26 -0.564 1.26 -1.272C1.26 -1.932 1.632 -3.276 1.86 -3.78C2.268 -4.62 2.832 -5.052 3.3 -5.052C4.092 -5.052 4.248 -4.068 4.248 -3.972C4.248 -3.96 4.212 -3.804 4.2 -3.78L3.612 -1.428ZM4.38 -4.5C4.248 -4.812 3.924 -5.292 3.3 -5.292C1.944 -5.292 0.48 -3.54 0.48 -1.764C0.48 -0.576 1.176 0.12 1.992 0.12C2.652 0.12 3.216 -0.396 3.552 -0.792C3.672 -0.084 4.236 0.12 4.596 0.12S5.244 -0.096 5.46 -0.528C5.652 -0.936 5.82 -1.668 5.82 -1.716C5.82 -1.776 5.772 -1.824 5.7 -1.824C5.592 -1.824 5.58 -1.764 5.532 -1.584C5.352 -0.876 5.124 -0.12 4.632 -0.12C4.284 -0.12 4.26 -0.432 4.26 -0.672C4.26 -0.948 4.296 -1.08 4.404 -1.548C4.488 -1.848 4.548 -2.112 4.644 -2.46C5.088 -4.26 5.196 -4.692 5.196 -4.764C5.196 -4.932 5.064 -5.064 4.884 -5.064C4.5 -5.064 4.404 -4.644 4.38 -4.5Z' id='g0-97'/>
<path d='M6.248 -3.44C6.248 -4.752 5.336 -5.632 4.056 -5.632C2.192 -5.632 0.408 -3.784 0.408 -2C0.408 -0.768 1.272 0.168 2.616 0.168C4.408 0.168 6.248 -1.552 6.248 -3.44ZM2.68 -0.096C1.864 -0.096 1.2 -0.68 1.2 -1.824C1.2 -1.952 1.2 -3.288 2.12 -4.424C2.416 -4.784 3.136 -5.384 4 -5.384C4.8 -5.384 5.504 -4.832 5.504 -3.72C5.504 -3.28 5.336 -2.032 4.512 -1.056C4.048 -0.504 3.36 -0.096 2.68 -0.096Z' id='g1-79'/>
<path d='M3.616 -4.84C3.688 -5.128 3.696 -5.144 4.024 -5.144H4.632C5.464 -5.144 5.56 -4.88 5.56 -4.48C5.56 -4.28 5.512 -3.936 5.504 -3.896C5.488 -3.808 5.48 -3.736 5.48 -3.72C5.48 -3.616 5.552 -3.592 5.6 -3.592C5.688 -3.592 5.72 -3.64 5.744 -3.792L5.96 -5.296C5.96 -5.408 5.864 -5.408 5.72 -5.408H1.008C0.808 -5.408 0.792 -5.408 0.736 -5.24L0.248 -3.856C0.232 -3.816 0.208 -3.752 0.208 -3.704C0.208 -3.64 0.264 -3.592 0.328 -3.592C0.416 -3.592 0.432 -3.632 0.48 -3.768C0.936 -5.048 1.168 -5.144 2.384 -5.144H2.696C2.936 -5.144 2.944 -5.136 2.944 -5.072C2.944 -5.048 2.912 -4.888 2.904 -4.856L1.848 -0.656C1.776 -0.352 1.752 -0.264 0.92 -0.264C0.664 -0.264 0.584 -0.264 0.584 -0.112C0.584 -0.104 0.584 0 0.72 0C0.936 0 1.488 -0.024 1.704 -0.024H2.384C2.608 -0.024 3.168 0 3.392 0C3.456 0 3.576 0 3.576 -0.152C3.576 -0.264 3.488 -0.264 3.272 -0.264C3.08 -0.264 3.016 -0.264 2.808 -0.28C2.552 -0.304 2.52 -0.336 2.52 -0.44C2.52 -0.472 2.528 -0.504 2.552 -0.584L3.616 -4.84Z' id='g1-84'/>
<path d='M5.28 -2.016H5.016C4.98 -1.812 4.884 -1.152 4.764 -0.96C4.68 -0.852 3.996 -0.852 3.636 -0.852H1.416C1.74 -1.128 2.472 -1.896 2.784 -2.184C4.608 -3.864 5.28 -4.488 5.28 -5.676C5.28 -7.056 4.188 -7.98 2.796 -7.98S0.588 -6.792 0.588 -5.76C0.588 -5.148 1.116 -5.148 1.152 -5.148C1.404 -5.148 1.716 -5.328 1.716 -5.712C1.716 -6.048 1.488 -6.276 1.152 -6.276C1.044 -6.276 1.02 -6.276 0.984 -6.264C1.212 -7.08 1.86 -7.632 2.64 -7.632C3.66 -7.632 4.284 -6.78 4.284 -5.676C4.284 -4.656 3.696 -3.768 3.012 -3L0.588 -0.288V0H4.968L5.28 -2.016Z' id='g2-50'/>
<path d='M8.1 -3.888C8.268 -3.888 8.484 -3.888 8.484 -4.104C8.484 -4.332 8.28 -4.332 8.1 -4.332H1.032C0.864 -4.332 0.648 -4.332 0.648 -4.116C0.648 -3.888 0.852 -3.888 1.032 -3.888H8.1ZM8.1 -1.656C8.268 -1.656 8.484 -1.656 8.484 -1.872C8.484 -2.1 8.28 -2.1 8.1 -2.1H1.032C0.864 -2.1 0.648 -2.1 0.648 -1.884C0.648 -1.656 0.852 -1.656 1.032 -1.656H8.1Z' id='g2-61'/>
<path d='M2.256 -1.632C2.384 -1.752 2.72 -2.016 2.848 -2.128C3.344 -2.584 3.816 -3.024 3.816 -3.752C3.816 -4.704 3.016 -5.32 2.016 -5.32C1.056 -5.32 0.424 -4.592 0.424 -3.88C0.424 -3.488 0.736 -3.432 0.848 -3.432C1.016 -3.432 1.264 -3.552 1.264 -3.856C1.264 -4.272 0.864 -4.272 0.768 -4.272C1 -4.856 1.536 -5.056 1.928 -5.056C2.672 -5.056 3.056 -4.424 3.056 -3.752C3.056 -2.92 2.472 -2.312 1.528 -1.344L0.52 -0.304C0.424 -0.216 0.424 -0.2 0.424 0H3.584L3.816 -1.432H3.568C3.544 -1.272 3.48 -0.872 3.384 -0.72C3.336 -0.656 2.728 -0.656 2.6 -0.656H1.176L2.256 -1.632Z' id='g3-50'/>
</defs>
<g id='page1' transform='matrix(1.12578 0 0 1.12578 -63.986 -61.02)'>
<use x='56.6248' xlink:href='#g0-83' y='71.6284'/>
<use x='63.8512' xlink:href='#g1-84' y='73.4283'/>
<use x='69.9804' xlink:href='#g1-79' y='73.4283'/>
<use x='80.4993' xlink:href='#g2-61' y='71.6284'/>
<use x='96.7679' xlink:href='#g0-86' y='63.5103'/>
<use x='106.229' xlink:href='#g3-50' y='59.1556'/>
<use x='103.618' xlink:href='#g1-84' y='66.5421'/>
<use x='109.747' xlink:href='#g1-79' y='66.5421'/>
<rect height='0.47998' width='25.3578' x='94.1714' y='68.3884'/>
<use x='94.1714' xlink:href='#g2-50' y='79.8598'/>
<use x='100.046' xlink:href='#g0-97' y='79.8598'/>
<use x='106.214' xlink:href='#g1-84' y='81.6598'/>
<use x='112.344' xlink:href='#g1-79' y='81.6598'/>
</g>
</svg>
